<svg id="Layer_1" data-name="Layer 1" xmlns="http://www.w3.org/2000/svg" viewBox="0 0 303.65 287.21">
  <defs>
    <style>
      <!-- @media (prefers-color-scheme:dark) { -->
        .cls-1 {
          fill: #c0dcfd;
        }
      <!-- } -->
    </style>
  </defs>
  <title>indybay arrow first</title>
  <g>
    <path class="cls-1" d="M75.43,143.85,171.7,47.6A27.74,27.74,0,1,0,132.48,8.37L2.13,138.73a7.23,7.23,0,0,0,0,10.25L132.48,279.34a27.74,27.74,0,0,0,39.22-39.23Zm0,0" transform="translate(0 0)"/>
    <path class="cls-1" d="M199,143.85,295.27,47.6A27.74,27.74,0,1,0,256.05,8.37L125.7,138.73a7.23,7.23,0,0,0,0,10.25L256.05,279.34a27.74,27.74,0,0,0,39.22-39.23Zm0,0" transform="translate(0 0)"/>
  </g>
</svg>
