<svg xmlns="http://www.w3.org/2000/svg" viewBox="0 0 163.99 86.86">
  <defs>
    <style>
      .cls-1 {
        fill: #000;
      }
      .cls-2 {
        fill: #fff;
      }
    </style>
  </defs>
  <title>banner_logo-right</title>
  <g id="logo-right">
    <g>
      <rect class="cls-1" x="33.78" width="130.21" height="86.86"/>
      <path class="cls-1" d="M539.59,431.9a65.06,65.06,0,0,0,14,40.4H656.28a65.3,65.3,0,0,0-5.39-86.86H559A65.17,65.17,0,0,0,539.59,431.9Z" transform="translate(-539.59 -385.44)"/>
      <g>
        <path class="cls-2" d="M587.91,398.2a5.85,5.85,0,0,0,2.18-.37c1.08-.19,2-.52,2.22-1.77a2.46,2.46,0,0,0-1.14-2.69c-2.73-2-6.42-3-9.16-.41a26.76,26.76,0,0,0-3.63,5.34c-1.43,2.58-3.38,4.78-4.46,7.38a61.28,61.28,0,0,0-2.74,8.21c-.57,2.59.34,5.1-.09,7.7-.29,1.73.48,3.34.62,5.06a12.82,12.82,0,0,0,.44,4.07,8.58,8.58,0,0,1,.2,1.88c.29,3.31.59,6.42,2.46,9.45.58,1,2,1.74,2.57,2.89.28,1,.26,2.2.55,3.21.14.43.35,1.54.64,1.54,1.58.43,1.52.08,3,.47.77.2,2.13-1.21,2.41-1.72a1.92,1.92,0,0,0-.73-2h0c-.06-.08-.21-.25-.49-.57a4.88,4.88,0,0,0,.43.52,4.07,4.07,0,0,1-1.76-2.43c.06.08.12.19.18.14l.17.12c-.06-.25-.06-.33,0-.23a4.34,4.34,0,0,1-.38-2.17c-.23-.25-.58-.84-.46-.72a1,1,0,0,1-.18-.23l-.09-.44c0-.25.26-.31.59.22,0,0-.43-.64-.79-1.2a.43.43,0,0,1,0-.11c.12.15.1.09,0-.16s0-.2,0-.3l.05,0c0-.09-.05-.18-.08-.28a17.67,17.67,0,0,1,0-3.45,2.76,2.76,0,0,0-1.06-2.29,1.9,1.9,0,0,0-.37-.7c1,1.36-1.93-1.74-1-3,.09,0,.18.07.27.2a10.2,10.2,0,0,0-.8-1.83.85.85,0,0,0,.17-.16,6.1,6.1,0,0,1-.74-2.31c.32.7.4.94.24.7.09.31.28,1,.44.66a1.36,1.36,0,0,0-.22-.87l.34.56h.06c0-.19-.08-.36-.11-.51l.07.15a.28.28,0,0,0-.08-.15A4.2,4.2,0,0,0,577,424c-.09.31-.16.2-.19-.31,0,.46,0,.57-.22.33a6.47,6.47,0,0,0,.22.69.09.09,0,0,0-.07,0,1.07,1.07,0,0,1-.24-.61,7.45,7.45,0,0,1,.08-1.16c.18.38.66,1,.78,1.32.75-1.38-.13-.37-.77-1.37,0,0,0,0,0-.06l.74.31.06,0,.29.1a20.37,20.37,0,0,0,1.62-2.64h0s0,0,0,0c.44-.87.78-1.71,1.15-2.66a4.1,4.1,0,0,1-.3.55,1.72,1.72,0,0,0,0-.24,1,1,0,0,0,0,.24,3.89,3.89,0,0,0-.92,2.11.72.72,0,0,0-.21.08c-.29-2.42,3.47-4.25-.11-5.68.06-.11.21-.17.16-.11a6.34,6.34,0,0,0,.74-.23c-.15,0-.1,0,0-.07-.19.12-.3,0,0-.08-.17-.05-.4-.19,0-.09a2.42,2.42,0,0,1-.39-.21.56.56,0,0,0,.54-.27l.18-.17a3.15,3.15,0,0,0,1.57-1.05,3.47,3.47,0,0,0,.26-1.54c.14-.2.28-.43.43-.69l-.44.17a6.81,6.81,0,0,1,.1-2c0,.33-.1.78.08.64a1.31,1.31,0,0,1,0-.9,16.82,16.82,0,0,1,1.75-2.42,10.61,10.61,0,0,0-.57,1.74,13.25,13.25,0,0,0,1.65-3.1l.17-.24c.29-.43,1.12-.76,1.12-1.19,0-.7-.17-1.57-.19-2.38h0c0-.07,0-.14,0-.21h0s0,0,0,0a2,2,0,0,1,1.21-2.18A4.57,4.57,0,0,1,587.91,398.2Zm-7.72,18.5Zm-.86-2.2a2.5,2.5,0,0,0-.39.17h-.55a3.49,3.49,0,0,1,1-.6C579.2,414.32,579.13,414.48,579.33,414.5Zm-1,1.73c0-.14.17-.2,0,0Zm-.2,1.45c-.11-.57,1,.95,0,0Zm0-1.94c-.35-.3.1.06,0,0Zm0,.16-.39-.18.08-.17C578,415.65,578.13,415.78,578.11,415.9Zm-.64.89c.36.08.62.21.54.45-.24-.07-.31-.18-.48-.2A1,1,0,0,1,577.47,416.79Zm0-.3a2,2,0,0,1,.13-.53,2.53,2.53,0,0,1,.45.34A2.63,2.63,0,0,1,577.48,416.49Zm.5,3.28.25-.17a3.37,3.37,0,0,1-.34.48ZM581.51,444l.09.06S581.54,444.07,581.51,444Zm-2.84-11.66s.11.14.19.26l-.18-.1A.49.49,0,0,1,578.67,432.37ZM577.4,423c0-.11-.11-.21-.07-.14a.53.53,0,0,0-.1.14l-.13,0a2.91,2.91,0,0,0-.47-.16h0c.63.13.45-.1.52-.78.72.54.08,1,.88.18C577.94,422.4,577.85,422.92,577.4,423Zm1.73-8.29h0S579.16,414.68,579.13,414.68Zm5.1-8.68a.79.79,0,0,0,0-.43c.14-.17.28-.34.41-.52C584.51,405.37,584.35,405.72,584.23,406Z" transform="translate(-539.59 -385.44)"/>
        <path class="cls-2" d="M603.31,404.51c-.58-2.16-3.32-3.16-5.48-2.59a7.42,7.42,0,0,0-3.86,2.57c-2,1.37-3.38,4.86-4.32,8.14-.34.81-.67,1.61-1,2.44,0-.5.07-.85,0-.37a2.84,2.84,0,0,0-.06.29v0c0,.1,0,.21,0,.32-.14.42-.28.86-.41,1.3,0-.14.05-.27.07-.39h0c.09-.52.17-.91.16-.89,0-.18.16-.23.23-.49h0a3.75,3.75,0,0,0,.07-1.28c-.3.33-.37.45-.2.34-.16,1.16-.82,2.11-.6,3.74l-.12.52,0-.08q0,.18,0-.06a23.64,23.64,0,0,0-.35,2.58c.09,0,.13-.16.16-.43,0,.23,0,.45,0,.68a2.22,2.22,0,0,1-.21-.29,1.59,1.59,0,0,0,.24.84l0,.6c-.21-.19-.07,0-.33-.61.11.26.1.32,0,.2.31,1.31,0,0,0,1.8-.13-.67-.05.4,0,1.49-.16.15-.38.39-.38.52a15.42,15.42,0,0,0,.28,2c-.11,0-.15,0,0,.11a34.08,34.08,0,0,0,1.19,6s0-.05,0,0,.05.11.07.09l.09.28c0,.07,0,.13,0,.19-.18-.25-.12,0,0,.48a12.48,12.48,0,0,0,1.1,5.12c.58.87,1.59,1.3,2,2.31.14.86.72,1.58.86,2.45a1.46,1.46,0,0,0,.58.71,3.77,3.77,0,0,1,2.45.73c.14.14.58,0,.72,0,.14-.73.72-1.44.72-2a3.83,3.83,0,0,0-1.26-1.75s-.05-.08-.12-.11-.31-.31-.45-.47c-.16-.53-.11-.91-.23-1.4a.06.06,0,0,1,0,0,2.07,2.07,0,0,1-.28-.51c-.44-.54-.07-.36-.32-.95l0,0a.43.43,0,0,1,0-.07l-.11-.21v-.05h0v-.06l0,.05a.28.28,0,0,1,.11-.05.59.59,0,0,0-.15-.34c0-1.51.17-3,.08-4.5a4.29,4.29,0,0,1-1.88-1.19,2.79,2.79,0,0,0-.33-1c.05.2.1.4.14.58l0,0,0,0c0,.09,0,.16.05.24a2.09,2.09,0,0,1-.14-.17c0-.14-.22-.53-.11-.7a.13.13,0,0,1,.06.05c-.1-.45-.22-.91-.31-1.21.11,0,.25-.21.27-.34a5.88,5.88,0,0,1,0,.82c-.09-.2-.06-.07.1.39a1.09,1.09,0,0,1,0-.62,1.16,1.16,0,0,0-.27-1.06s0,0,.06,0c-.07-.3,0-.29-.07-.78,0,.15.11.39.15.57h0a14.94,14.94,0,0,0-.07-1.66.22.22,0,0,0-.1-.06s0-.06,0-.09l0,.09s0,0,0,.06a.31.31,0,0,1,0-.12c.11-1,.09-2.08.2-1.92-.05.23-.09.89.07.35a9.32,9.32,0,0,0,0,1.75c.32-1.77.49-2.93.71-4.19a3.52,3.52,0,0,0,.95-.85c.14-.15-.58-.29-.87-.44l-.07-.07a3,3,0,0,0,.28-.57v0a1.31,1.31,0,0,0,0-.74.83.83,0,0,1,.08.12s0-.07,0-.07a1.57,1.57,0,0,1-.08-1.09v-.19a.63.63,0,0,0-.08-.17l.08-.11v.28a.4.4,0,0,1,0,.19v.31s.07-.16.08-.35c0,.16,0,.35,0,.57.31-1,.37-1.3.18-.83.07-.25,0-.26-.07,0,0-.17.07-.36.11-.54a7.49,7.49,0,0,0,1.27-.76c.9-.64.61-1.76.89-2.69l.22-.3a.9.9,0,0,1-.17.14c0-.06,0-.12.07-.17l.19-.35a4.68,4.68,0,0,0,1.29-1.88l.34-.48h0l.12-.2c.08,0,.38-.37,0,0a6.83,6.83,0,0,0,.5-1,3,3,0,0,0,.27-1.25,7.54,7.54,0,0,1,2.51-3C602.23,406.43,603.9,406.07,603.31,404.51Zm-10.48,14.93a.47.47,0,0,1,0,.24c0-.07,0-.13,0-.18Zm-.47.24h0l-.05,0,0-.07h0l0,0v.06Zm.28.17-.24-.15,0-.07.16.07A.17.17,0,0,0,592.64,419.85Zm-4.88-1.66,0,0,0,.12c0,.07,0,.15,0,.22Zm-.21,11.07a.21.21,0,0,1,0,.06c0,.13.06.26.1.4a2.49,2.49,0,0,0,0,.36c-.06-.21-.22-.74-.2-.7Q587.74,429.76,587.55,429.26Zm7.08,11.52.15.27A1.82,1.82,0,0,1,594.63,440.78Zm-3.49-13.08a.63.63,0,0,1,.11-.12c0,1.2,0,2,.07,2.66A8.84,8.84,0,0,1,591.14,427.7Zm.52.41c.11.54.14.75.09.61a2.06,2.06,0,0,0,.08.54A1.56,1.56,0,0,1,591.66,428.11Zm-.08,0a3.45,3.45,0,0,0,.1-.43C591.7,427.94,591.69,428.18,591.58,428.09Zm.75-4.25a2.13,2.13,0,0,1-.09-.27.83.83,0,0,1,.15-.11,1.7,1.7,0,0,0,0,.27A.65.65,0,0,0,592.33,423.84Zm.66-4.69,0-.07s0,0,0-.06l0,0-.07-.07.22-.15V419Z" transform="translate(-539.59 -385.44)"/>
        <path class="cls-2" d="M608.12,411.53c-2.45.57-3.45,3.17-4.61,5.33-.32.71-.63,1.42-.91,2.13l-.1-.06c-.06.07,0,.12.06.16a2.44,2.44,0,0,1-.1.24,2,2,0,0,0,0-.23c-.26.23-.32.31-.17.24a.15.15,0,0,0,0,.26,7,7,0,0,0-.57,2.1,13,13,0,0,0-.35,1.88c-.05.27-.09.58-.15.89a.08.08,0,0,0,.07,0v.11l-.11-.1a.6.6,0,0,0,.1.32c0,.23,0,.47,0,.71,0,0,0,.2,0,.44h0l0,0c0,.18,0,.39.07.67-.1-.28-.1-.14-.07.19l0,0,0,0a.07.07,0,0,0,0,.05c-.12.09-.28.18-.28.26a21.92,21.92,0,0,0,.46,2.75h0l0,.06c.14.65.28,1.3.4,1.95.28,1,0,2.16.28,3.17.29.57.29,1.15.58,1.72l0,0c-.24,1.49.21,3.33,1.8,2.94-.25-.15-.17-.16,0-.12a2,2,0,0,0,.13.29h0a.59.59,0,0,0,.36.3c.72.29,1.44.72,1.88.43.43-.14.86-.86.57-1.29-.28-.87-1.44-1.3-1.58-2.16a2.68,2.68,0,0,1-.11-.55.18.18,0,0,0,0,.08s0-.1-.07-.27a.66.66,0,0,1,0-.14.06.06,0,0,1,.06,0,.3.3,0,0,0-.07-.26c0-1.15.25-2.35-.28-3.32-.29-.72-1.3-1-1.44-1.73l-.06-.3a.26.26,0,0,0,0-.17c0-.1,0-.2,0-.3s.11-1,.09-1.05l-.1-.06s0,0,0-.06l0,.05h0a10.45,10.45,0,0,1,0-1.37c0-.09.08-.13.14-.08-.06.26,0,.73.21-.2,0,0-.21,1.36-.18,1.77.35-1.59.53-2.08.84-3.25-.06,0-.11-.16-.16-.22s0,.82-.07.14a4,4,0,0,0-.15.58c.13-.12,0,0,0,.16l0-.08,0,.08c0,.09-.07.17,0,.21-.36-.32-.19-.67.06-1.05a3.72,3.72,0,0,1,.74-.56.21.21,0,0,0,0-.35l-.2-.22c0-.14,0-.15.1,0a1,1,0,0,1,0-.55l-.06.09c0-.1,0-.18-.06-.26,0,.07,0,.12-.06.12a2.71,2.71,0,0,1,0-.4c-.07-.37,0-.29,0-.11a3.79,3.79,0,0,1,.25-.9l.22-.11a2.65,2.65,0,0,0-.09.44,2.47,2.47,0,0,0,.23-.46c-.08.09-.12.09-.1,0a1.22,1.22,0,0,0,.67-.5c0,.14.21-.18,1.45-2.42,0,0-.65.72-1.11,1.32.05-.19.09-.37.14-.54l.13-.15,0-.1a2.94,2.94,0,0,1,.93-1.52,2.19,2.19,0,0,0,.36-.39c-.21.61-.09-.33-.58,1.26a2.6,2.6,0,0,0,.76-1.59,2.78,2.78,0,0,0,.21-.71c.06-.06.11-.18,0,0l0-.14s0,0,0,0a10.24,10.24,0,0,1,.19-1l.37-.32-.2.41q.15-.28.21-.42l.94-.76c.42-.11.88-.18,1.3-.3a1.1,1.1,0,0,0,.43-1.73A3.31,3.31,0,0,0,608.12,411.53Zm-3.31,12.82a.64.64,0,0,0-.1-.13S604.78,424.26,604.81,424.35Zm-1.18,13.8c0-.09,0-.28,0-.44a1.29,1.29,0,0,1,.19.21V438h0a1.58,1.58,0,0,1,.19.34,2.4,2.4,0,0,1,.12.38c-.12-.15-.22-.33-.38-.52C603.82,438.31,604,438.62,603.63,438.15Zm-.3-.76a.26.26,0,0,1-.13.17c0-.11,0-.21,0-.29ZM603,438c.21.26.26.37.14.34,0,.35.75.66,1.17.82h.06l-.06,0s0,0,.06,0l.09.31c-.07,0-.07,0,0,0v0C604.08,439.4,602.6,438.79,603,438Z" transform="translate(-539.59 -385.44)"/>
        <path class="cls-2" d="M640.9,461.84c-2.45,1.3-5.23.6-7.53-.69-2-1.16-3.14-3.21-4.44-5.09.58-.86,1.68-1.57,1.82-2.58.72-4.75.17-9.39.17-14.14a29.26,29.26,0,0,0-.62-7.84,4,4,0,0,0-3.77-2.44c-1.44.14-2.72,1.2-4.16,1.78-2.59-2-7.67-2.83-9.4.34a3.46,3.46,0,0,0,.39,4h.89c.12.11.64.13-.63.2a8.89,8.89,0,0,0,1.13.19c-.51.14-.6.22,0,0,2.42.26,4.93-.3,7-.33l1.17.06a3.52,3.52,0,0,1,3,1.9c.08.89.15,1.78.22,2.67-.1-.24-.25-.56-.47-1-.08.59-.08.76,0,.52.2.78.39,1.46.6,2.27.08,1.17.16,2.35.21,3.52,0,.35-.09.7-.13,1.05.11-.59.21-.93,0,.53.05-.2.09-.47.13-.75,0,.62,0,1.24.05,1.87a1.57,1.57,0,0,1-.41-.56c-.06.76.52,1,.38,1.82-.06-.25-.11-.31-.14-.19a.75.75,0,0,0-.24-.55c.13.32.13.4,0,.25a1.93,1.93,0,0,1,.12.7s.09,0,.18.19a.75.75,0,0,0-.2.11c0,.06,0,.13,0,.22a1.21,1.21,0,0,0,0-.2c-.22.2-.22.58,0,1.12a16,16,0,0,0,.09,4.88c-.16-1.83,0-1.43.19-.66l0,.78c-.08-.08-.18.07-.23.84,0-.16,0-.6-.11-.64,0,.27.14,1,.27,1.82,0,.19,0,.37,0,.55s0,0-.1-.17c.08.47,0,.51-.11.14,0,.18.11.53.15.81l0-.26c0,.12,0,.23,0,.35s0-.06,0-.09a.92.92,0,0,0,0,.24c0,.76-.07,1.51-.13,2.27,0,.29-.38.75-.67.75-2-.14-4-1.2-6.19-.76-.43,0-.86-.21-1.29.08a6.59,6.59,0,0,0-1.8,2.21c-.72-.58-.67-2-1.39-1.83-1.15,0-.71,2.15-.57,3.3,0,.14.59.33.73.33l1.27,0c0,.13.05.19.2,0,2.47.06,4.94.08,7.4.12,3,.05,5.91.46,8.87.43s5.93-.11,8.91-.25a2.49,2.49,0,0,0,2.09-3A2.09,2.09,0,0,0,640.9,461.84Zm-14.36-8.9c0,.33,0,.67,0,1C626.52,453.63,626.53,453.28,626.54,452.94Z" transform="translate(-539.59 -385.44)"/>
        <path class="cls-2" d="M628.57,424.93a2.5,2.5,0,0,0,1.43.1c2-.43,2.53-2.69,2.53-4.56a10.89,10.89,0,0,0-.53-3,3.1,3.1,0,0,0-1.86-1.71c-3-.86-6,1.37-7.4,3.82a2.17,2.17,0,0,0,0,1.38C624,423.11,626.41,423.92,628.57,424.93Z" transform="translate(-539.59 -385.44)"/>
        <path class="cls-2" d="M646,419.52c-.86-1.87-1-3.89-1.87-5.76s-3-2.6-4.9-3.46a2,2,0,0,0-1.58.14c-.72.58-.43,2,.14,2.88a4.61,4.61,0,0,0,.77.76l-.14-.1c.05.28-.08.23-.4-.18.07.19.16.37.24.55h0c1.23,2.66,2.9,4.26,4.25,6.07l-.25.06c0,.08.19,0,.27,0,.14.18.27.37.4.57l.18.54q-.06-.15-.12-.27h0a1.5,1.5,0,0,1-.09-.18l.06.15,0,0,0,0c.12.28.21.48.28.62.13.36.27.72.4,1.07-.38-.63-.68-1.4-.7-1.37s-.39-.73-.61-.72c0,.11,0,.16.16.15.3.61.23,1.5,1.26,2.39-.07-.07-.06-.1,0-.11a5.19,5.19,0,0,1,.24,1.12l.06.77-.32-.14c0,.16.19.26.35.38l0,.38-.24-.22c.59,1.26-.18,1.36.14,3.61a2.68,2.68,0,0,1-.07.27l-.06-.05,0-.06c.17-.38,0-.08,0,.06,0,0-.08,0-.09,0s-.12.32-.2.57c0,0,0,0,0,0l0,0c-.07.2-.14.42-.2.63s.09.16.12-.11a.19.19,0,0,0,0,.08.57.57,0,0,0,0,.18c-.08.06-.3.54-.22.55,0,.25,0-.17,0-.5-.13.43-.23.76-.18.68a1.76,1.76,0,0,0,.37,1.2h0l.18.28a11.6,11.6,0,0,1-.4,1.47c-.22.43-.43.86-.63,1.28-.73.9-1.75,2.21-1.46,2.71l0-.05h0c.16-.3,0-.06.06.18l0,.08v0s0,0,0,.07l-.39.79c-.29.58.14,1.3.86,1a6.4,6.4,0,0,0,.51-.4c0,.11.08.12,0,0a9.13,9.13,0,0,0,2.77-5.18c0-.15,0-.3.08-.45s0,0,0,0c.09-.27.34-.86.1-.52a23,23,0,0,1,2-6.05c.14-.57-.58-.86-.72-1.44C646.15,424.13,647,421.68,646,419.52Zm-4.75-3.17a1.35,1.35,0,0,1,.14.74,27.12,27.12,0,0,0-1.76-2.25A4.62,4.62,0,0,1,641.25,416.35Zm2.27,14.51a3.2,3.2,0,0,0,.17.49h0a1.52,1.52,0,0,1,.15,1.13v0A1.78,1.78,0,0,1,643.52,430.86ZM642,437.09l-.6,1.24c0-.07,0-.06,0,0v0A2,2,0,0,1,642,437.09Z" transform="translate(-539.59 -385.44)"/>
        <path class="cls-2" d="M661.14,421.42a12.35,12.35,0,0,0-1.09-5.36,27.55,27.55,0,0,1-1.58-3.55c-.43-1.87-.19-4-1.2-5.69a9.11,9.11,0,0,0-3-3.15c-1.28-.76-3-.81-4.36-1.32-.86-.43-1.91-1-2.63-.46a1,1,0,0,0-.3.34.53.53,0,0,0-.13-.13s.1.31,0,.27c-.55.06-1,1.35.26,1.78-.11-.07-.08-.08.1,0l0,.1s0,0,0,0,.11.27.17.4c-.23,0-.48.05-.73.06a3.55,3.55,0,0,0,.76.13,6.25,6.25,0,0,1-.87,0c.32.1,0,.11.06.12.4-.11.43-.1.08,0,0,0,.46-.2.59-.09s-.2.16-.38.27l-.16,0,.15,0c-.17.12-.3.22-.15.19.54.19.12,0,.21.21a1.94,1.94,0,0,0,.28-.08l0,.09h0v0l-.25.08a1.23,1.23,0,0,0,.27,0l0,.06h0l-.31.05.29,0-.07.05.12-.05,0,.07h0s-.07,0-.09,0h-.09a.27.27,0,0,0-.05.11c-.13-.13-.08-.08,0,0a1,1,0,0,0,0,.17h0a.13.13,0,0,1,0,.06,3.47,3.47,0,0,0,.61,0v0c-.26.08-.27.08,0,0l0,0h0l-.21.15,0,0,0,0c-.12.08-.16.11.05.07,0,0,0,0,0,0h0l.17,0c-.16.17-.53.19-.67.23.22,0,.22,0,0,.06.24,0,.92-.24.08,0,.09,0,.1,0,0,0a8.19,8.19,0,0,1,1,0h0l0,0h0s0,0,0,0c1.21,1.36,3.14,3.1,4.52,4.43a14,14,0,0,1-.06,1.8c.15.29.87.59,1,.88a3.44,3.44,0,0,0,.5.51l0,0c0,.17.14.17.22.12a3.37,3.37,0,0,1,1.17,1.36,1,1,0,0,1,0,.3c-.37-.62-.82-1.29-.49-.73l.11.23,0-.07,0,.07.37.68c0,.11-.05.21-.07.32-.14-.33-.24-.54-.24-.54-.08-.18.1-.61-1-1.53,0,.1,0,.18,0,.25s-.07-.08-.09-.12a.43.43,0,0,0,.09.15v0c0,.25,0,.29.08.14.33.69.57,1.38,1,2.21a2.31,2.31,0,0,0-.17,1.4,10.7,10.7,0,0,0,1,2.42c0,.16.06.33.08.5.08,0,.09-.09.07-.19.07.13.13.26.19.4l-.31-.24c.07.42.39.61.58.92,0,.13.09.26.13.39s0,.07,0,.11c-.12-.23-.18-.25-.18-.07a.54.54,0,0,0-.35-.47c.19.23.2.3,0,.2a1.71,1.71,0,0,1,.29,1c.28-.91,0,.07.19.86-.27-.59-.12.29.09,1.3,0,.27,0,.55,0,.83a8.27,8.27,0,0,0,.32,1.95c-.19-.05-.31-.05-.08.05a10.9,10.9,0,0,0-.06,1.75c.07-.14.15-.33.24-.37a2,2,0,0,1,.11-.26,2.89,2.89,0,0,1,0,.72c0,.15-.14.3-.33.46a1.28,1.28,0,0,1,0-.19c0,.1,0,.19-.06.24h0c-.08-.1,0-.29.07-.48s0-.09,0-.13c-.08.18-.14.29-.15,0,0,.38-.08.41-.15.07,0-.06-.1.56-.13.8a2.62,2.62,0,0,1,.32-.55c0,.11,0,.22,0,.32l-.33.23h0a2.65,2.65,0,0,0-.67.55c-.28.87.92,1.67.78,2.67a23.55,23.55,0,0,1-1.56,3.79,12.07,12.07,0,0,0-.45,1.59,9.53,9.53,0,0,0-.86,2.77c-.55,1.18-1.1,2.37-1.6,3.59-.43.87.41,1.46,1.27.88a10.2,10.2,0,0,0,3-2.65c.66-1.17,1-2.55,1.54-3.73a14,14,0,0,0,1.07-4.32,13.82,13.82,0,0,1,.82-4.38,40.58,40.58,0,0,0,1.43-3.94,3.86,3.86,0,0,0,.07-1.31A16.7,16.7,0,0,1,661.14,421.42Zm-13.59-15.64,0-.1.08,0,0,.12Zm.18-.37a.42.42,0,0,1,0,.1l-.13,0a1,1,0,0,0-.08-.14l.16,0C647.58,405.43,647.59,405.44,647.73,405.41Zm-.12.22h0S647.63,405.66,647.61,405.63Zm0,0h0Zm0,0h0Zm0,0h0v0l-.08,0,0,0,.09,0Zm.12,0,.06,0h0l.06,0a1.34,1.34,0,0,0,.07.18h-.1A.64.64,0,0,1,647.68,405.6Zm-.41-.13s0,0,.28-.07a.77.77,0,0,1,.06.15h-.05l0,0v0l-.21,0A.83.83,0,0,1,647.27,405.47Zm.1.18.1,0a.11.11,0,0,0,0,.05l-.06,0Zm.06.16s0,0,0,0l0,0,.05,0s0,.06,0,.08l0,0Zm.64.84,0,0h0Z" transform="translate(-539.59 -385.44)"/>
        <path class="cls-2" d="M675.87,424.06c-.11-1,.33-2.16.31-3.2s.48-2.1.49-3.16-.67-2.12-.69-3.18,0-2.11-.1-3.18a7,7,0,0,0-1-2.55,16.3,16.3,0,0,1-1.47-2.56,17.19,17.19,0,0,1-.78-2.73c-.19-.93-.08-1.9-.3-2.81a10,10,0,0,0-1-2.58,9.46,9.46,0,0,0-2.07-2.41,14.24,14.24,0,0,0-2.88-1.55c-1-.54-1.78-1.38-2.75-1.81a14.36,14.36,0,0,0-3-.72c-1.22-.23-2.08-.34-2.55.76a5.78,5.78,0,0,0-.19,2.76,4.77,4.77,0,0,0,1.08,2.67,17.74,17.74,0,0,0,2.92,2.6,28.64,28.64,0,0,1,2.75,2.84c.43.43.79.42.79.85,0,.72-.21,1.38-.21,2.1.06.12.27.2.51.27.07,1.75,1.44,3.21,2.86,5.5a4.36,4.36,0,0,0-.09,1.38,11.94,11.94,0,0,0,1.49,2.91l.23.48c-.17.09-.53.05-1.21-.16.3.56,1.08.61,1.58.95.07.14.13.29.19.43-.16,0-.18.06-.07.34a.78.78,0,0,0-.9-.53c.44.2.51.29.21.3a7,7,0,0,0,1.07.71l.05.14a5.35,5.35,0,0,0,.15,1.14c-.1-.13-.14.06-.14.44l0,0s0,0,0,.06c0,.3,0,.71.1,1.19a4.71,4.71,0,0,0-.06,1,28.44,28.44,0,0,1-.13,3.2,9.55,9.55,0,0,0,.14,1.92l-.12.84.18-.1a4.14,4.14,0,0,1,0,.61s0,.05,0,.08a4.63,4.63,0,0,0-.25.5c0-.17,0-.49,0-.76,0,.45-.11.92-.15,1.4a7.13,7.13,0,0,0-.56,1.18c0,.28-.4.49-.4.78a4.07,4.07,0,0,1,.62,2.24c-.22,1.09-.22,2.2-.53,3.23s-.76,2.09-1.17,3.12-.95,2.06-1.43,3.1l-.09.2-.09.23c-.39.9-.74,1.83-1.16,2.73s-1.14,2-1.62,3.06a2,2,0,0,0,.21,2,3.12,3.12,0,0,0,2.78,0c.81-.73.76-2.28,1.42-3.11s1.94-1.28,2.46-2.22a20,20,0,0,0,1.34-3.11c.36-1-.08-2.25.14-3.33s1.22-1.78,1.45-2.73.67-1.89.95-2.84-.3-2.18,0-3.12,1.08-1.76,1.39-2.71,1-1.8,1.33-2.77C678,425.71,676,424.78,675.87,424.06Zm-8.09-14.28.05,0-.05,0c-.37-.55-.67-.92-.72-1-.26-.41-.93-1.11-.21,0a1.36,1.36,0,0,1-.66-1.07.35.35,0,0,1,.41.17,4.6,4.6,0,0,1-.31-1.24.65.65,0,0,1,.28.19,17.65,17.65,0,0,1,1.29,1.94c-.86-1.07-2-2.6-1.17-1.5.12.47.85,1.12,1.34,1.8.07.15.15.3.21.45s0,.08.06.14.12.28.17.42,0,0,0,.07v0a4,4,0,0,1,.15.45,2.65,2.65,0,0,1,0,.69A12.27,12.27,0,0,0,667.78,409.78Z" transform="translate(-539.59 -385.44)"/>
        <path class="cls-2" d="M601.21,424.25l0-.13A.18.18,0,0,0,601.21,424.25Z" transform="translate(-539.59 -385.44)"/>
        <path class="cls-2" d="M604.45,439.68s0,0,0,0Z" transform="translate(-539.59 -385.44)"/>
        <path class="cls-2" d="M602.27,419.24c.05,0,0-.08,0-.13A.39.39,0,0,0,602.27,419.24Z" transform="translate(-539.59 -385.44)"/>
        <path class="cls-2" d="M604.56,425.87v-.11A.49.49,0,0,0,604.56,425.87Z" transform="translate(-539.59 -385.44)"/>
        <path class="cls-2" d="M605.43,422.73l-.17.22,0,.22A2.29,2.29,0,0,1,605.43,422.73Z" transform="translate(-539.59 -385.44)"/>
        <path class="cls-2" d="M605.26,423h0S605.25,423,605.26,423Z" transform="translate(-539.59 -385.44)"/>
        <path class="cls-2" d="M604.41,426.45l0,0S604.4,426.51,604.41,426.45Z" transform="translate(-539.59 -385.44)"/>
        <path class="cls-2" d="M604.88,423.51s0,.08,0,.11,0,.17,0,.28A1.36,1.36,0,0,0,604.88,423.51Z" transform="translate(-539.59 -385.44)"/>
        <path class="cls-2" d="M605.23,423.17a5,5,0,0,0-.19.9A1.74,1.74,0,0,0,605.23,423.17Z" transform="translate(-539.59 -385.44)"/>
        <path class="cls-2" d="M605.82,436.14a.24.24,0,0,0,0,.13S605.84,436.18,605.82,436.14Z" transform="translate(-539.59 -385.44)"/>
        <path class="cls-2" d="M604,429.48c-.09.25-.06.68,0,0Z" transform="translate(-539.59 -385.44)"/>
        <path class="cls-2" d="M604,429.25a.3.3,0,0,1,0,.1S604,429.22,604,429.25Z" transform="translate(-539.59 -385.44)"/>
        <path class="cls-2" d="M603.84,428.77c0,.05.09.13.08,0C603.91,428.76,603.87,428.8,603.84,428.77Z" transform="translate(-539.59 -385.44)"/>
        <path class="cls-2" d="M604.4,426.53h0Z" transform="translate(-539.59 -385.44)"/>
        <path class="cls-2" d="M604.77,425.91c0-.27,0-.12,0,0Z" transform="translate(-539.59 -385.44)"/>
        <path class="cls-2" d="M605.46,422.67c.41-.36-.1.07,0,0Z" transform="translate(-539.59 -385.44)"/>
        <path class="cls-2" d="M605.71,422.51c-.1-.14-.08.09,0,0Z" transform="translate(-539.59 -385.44)"/>
        <path class="cls-2" d="M608.55,416.09c0,.13.15,0,0,0Z" transform="translate(-539.59 -385.44)"/>
        <path class="cls-2" d="M608.57,416.43c0-.14-.25-.32,0,0Z" transform="translate(-539.59 -385.44)"/>
        <path class="cls-2" d="M608.52,416.53s0,.05,0,.08S608.52,416.56,608.52,416.53Z" transform="translate(-539.59 -385.44)"/>
        <path class="cls-2" d="M582.82,445.22c-1.11.27,0,.38,0,0Z" transform="translate(-539.59 -385.44)"/>
        <path class="cls-2" d="M580.77,416.26c-.55-1.52-2.12-2.26,0,0Z" transform="translate(-539.59 -385.44)"/>
        <path class="cls-2" d="M578.53,431.4s0,.07,0,.12S578.54,431.47,578.53,431.4Z" transform="translate(-539.59 -385.44)"/>
        <path class="cls-2" d="M581.79,444l.08.13A.41.41,0,0,0,581.79,444Z" transform="translate(-539.59 -385.44)"/>
        <path class="cls-2" d="M582,443.48c.67,1.14.29.28-.07.77C582.06,444.27,584.27,445,582,443.48Z" transform="translate(-539.59 -385.44)"/>
        <path class="cls-2" d="M579.83,414.56h0Z" transform="translate(-539.59 -385.44)"/>
        <path class="cls-2" d="M577,425.72l.06.08C577,425.66,577,425.6,577,425.72Z" transform="translate(-539.59 -385.44)"/>
        <path class="cls-2" d="M581.32,440.92l-.17,0a3.08,3.08,0,0,1,.26.88C581.61,442,581.72,442,581.32,440.92Z" transform="translate(-539.59 -385.44)"/>
        <path class="cls-2" d="M577.63,427a.17.17,0,0,1,.08.07C577.71,427,577.69,427,577.63,427Z" transform="translate(-539.59 -385.44)"/>
        <path class="cls-2" d="M579.8,414.4a.53.53,0,0,0,.15.05Z" transform="translate(-539.59 -385.44)"/>
        <path class="cls-2" d="M577.67,426.39c.07,0,0-.07-.07-.24C577.53,426.18,577.56,426.26,577.67,426.39Z" transform="translate(-539.59 -385.44)"/>
        <path class="cls-2" d="M579.91,414.5h0s.06,0,.05-.05c-.17,0-.24.06-.06,0l-.08,0Z" transform="translate(-539.59 -385.44)"/>
        <path class="cls-2" d="M577.94,428.21a4.15,4.15,0,0,0-.23-1.14.64.64,0,0,1-.17.34l.4.79Z" transform="translate(-539.59 -385.44)"/>
        <path class="cls-2" d="M579.83,414.56l.08-.06h0Z" transform="translate(-539.59 -385.44)"/>
        <path class="cls-2" d="M580.91,440c-.29-1.32-.23-.23-.4-1.48,0,.24,0,.36-.07.34A3.94,3.94,0,0,0,580.91,440Z" transform="translate(-539.59 -385.44)"/>
        <path class="cls-2" d="M581.15,440.94l-.16-.3C580.8,440.93,581,441,581.15,440.94Z" transform="translate(-539.59 -385.44)"/>
        <path class="cls-2" d="M578.19,428.72l-.25-.52C577.73,428,577.81,428.15,578.19,428.72Z" transform="translate(-539.59 -385.44)"/>
        <path class="cls-2" d="M578.53,431.4a1,1,0,0,0,0-.45C578.24,430.41,578.24,430.56,578.53,431.4Z" transform="translate(-539.59 -385.44)"/>
        <path class="cls-2" d="M580.86,439a.45.45,0,0,0,.09.22C581,439.15,580.91,439,580.86,439Z" transform="translate(-539.59 -385.44)"/>
        <path class="cls-2" d="M586.27,400.56c.44-1.19.49-1.39,0,0Z" transform="translate(-539.59 -385.44)"/>
        <path class="cls-2" d="M578.78,431.71Z" transform="translate(-539.59 -385.44)"/>
        <path class="cls-2" d="M578.83,431.57v0Z" transform="translate(-539.59 -385.44)"/>
        <path class="cls-2" d="M578.82,431.59l0,.1Z" transform="translate(-539.59 -385.44)"/>
        <path class="cls-2" d="M578.85,431.51Z" transform="translate(-539.59 -385.44)"/>
        <path class="cls-2" d="M578.78,431.7h0v0Z" transform="translate(-539.59 -385.44)"/>
        <path class="cls-2" d="M578.85,431.51l0,.06Z" transform="translate(-539.59 -385.44)"/>
        <path class="cls-2" d="M578.36,430.12l0,.06a4.49,4.49,0,0,1,.15.77,2,2,0,0,1,.12.21c.19-.14-.16-1.3-.5-1.76.09.27.17.53.23.78Z" transform="translate(-539.59 -385.44)"/>
        <path class="cls-2" d="M578.32,430.06Z" transform="translate(-539.59 -385.44)"/>
        <path class="cls-2" d="M578.36,430.12l0-.06Z" transform="translate(-539.59 -385.44)"/>
        <path class="cls-2" d="M577.52,424.67c-.07.5.22,1.23,0,0Z" transform="translate(-539.59 -385.44)"/>
        <path class="cls-2" d="M577.56,424.29a.47.47,0,0,1,0,.16C577.62,424.45,577.57,424.24,577.56,424.29Z" transform="translate(-539.59 -385.44)"/>
        <path class="cls-2" d="M579.07,421.31c.06.44,0-.07,0,0Z" transform="translate(-539.59 -385.44)"/>
        <path class="cls-2" d="M579.51,420.24l0,.09Z" transform="translate(-539.59 -385.44)"/>
        <path class="cls-2" d="M579.55,420.16l.06-.14Z" transform="translate(-539.59 -385.44)"/>
        <path class="cls-2" d="M579.47,420.33Z" transform="translate(-539.59 -385.44)"/>
        <path class="cls-2" d="M579.55,420.16l0,.08Z" transform="translate(-539.59 -385.44)"/>
        <path class="cls-2" d="M580.61,418.56c.06-.36.11-.7,0,0Z" transform="translate(-539.59 -385.44)"/>
        <path class="cls-2" d="M583.39,408.28l-.11-.17C582.89,408.5,583.12,408.47,583.39,408.28Z" transform="translate(-539.59 -385.44)"/>
        <path class="cls-2" d="M583.39,408.28a1.09,1.09,0,0,1,.08.15l.24-.49A1.48,1.48,0,0,1,583.39,408.28Z" transform="translate(-539.59 -385.44)"/>
        <path class="cls-2" d="M583.47,408.43c-.41.83-.76,1.5-1.08,2C583.32,410.06,584,409.39,583.47,408.43Z" transform="translate(-539.59 -385.44)"/>
        <path class="cls-2" d="M583.71,407.94a1.58,1.58,0,0,0,.13-.26Z" transform="translate(-539.59 -385.44)"/>
        <path class="cls-2" d="M586.1,400.81Z" transform="translate(-539.59 -385.44)"/>
        <path class="cls-2" d="M587.85,398.81l.11.05A.16.16,0,0,0,587.85,398.81Z" transform="translate(-539.59 -385.44)"/>
        <path class="cls-2" d="M587.39,420.34l0-.16A.24.24,0,0,0,587.39,420.34Z" transform="translate(-539.59 -385.44)"/>
        <path class="cls-2" d="M587.24,422.5l0-.05S587.23,422.5,587.24,422.5Z" transform="translate(-539.59 -385.44)"/>
        <path class="cls-2" d="M587.82,431.74l0,0Z" transform="translate(-539.59 -385.44)"/>
        <path class="cls-2" d="M587.82,431.74Z" transform="translate(-539.59 -385.44)"/>
        <path class="cls-2" d="M587.85,431.77l0,0Z" transform="translate(-539.59 -385.44)"/>
        <path class="cls-2" d="M587.08,423.64c0,.12.15.19,0,0Z" transform="translate(-539.59 -385.44)"/>
        <path class="cls-2" d="M588.25,416.23v0Z" transform="translate(-539.59 -385.44)"/>
        <path class="cls-2" d="M588.64,414.91v0Z" transform="translate(-539.59 -385.44)"/>
        <path class="cls-2" d="M588.64,414.84v0Z" transform="translate(-539.59 -385.44)"/>
        <path class="cls-2" d="M588.64,415h0Z" transform="translate(-539.59 -385.44)"/>
        <path class="cls-2" d="M588.78,413.34c-.24.35.57.3,0,0Z" transform="translate(-539.59 -385.44)"/>
        <path class="cls-2" d="M588.57,413.59a.41.41,0,0,0,0,.17S588.55,413.66,588.57,413.59Z" transform="translate(-539.59 -385.44)"/>
        <path class="cls-2" d="M594.65,439.53Z" transform="translate(-539.59 -385.44)"/>
        <path class="cls-2" d="M592,429.22s0-.06,0-.19S591.93,429.09,592,429.22Z" transform="translate(-539.59 -385.44)"/>
        <path class="cls-2" d="M594.49,438.88l-.17-.16C594.39,438.81,594.44,438.87,594.49,438.88Z" transform="translate(-539.59 -385.44)"/>
        <path class="cls-2" d="M593.15,420.61l.06.15C593.19,420.66,593.17,420.62,593.15,420.61Z" transform="translate(-539.59 -385.44)"/>
        <path class="cls-2" d="M593.12,420.68q0,.07,0,.24C593.23,420.93,593.2,420.82,593.12,420.68Z" transform="translate(-539.59 -385.44)"/>
        <path class="cls-2" d="M591.71,428.61l0,.11C591.73,428.52,591.72,428.38,591.71,428.61Z" transform="translate(-539.59 -385.44)"/>
        <path class="cls-2" d="M594.65,439.43h0C594.73,439.84,594.7,439.6,594.65,439.43Z" transform="translate(-539.59 -385.44)"/>
        <path class="cls-2" d="M594.66,439.44a2.55,2.55,0,0,1,.25.67C595,439.78,594.9,439.56,594.66,439.44Z" transform="translate(-539.59 -385.44)"/>
        <path class="cls-2" d="M594.17,438.38c.06.06.06.06,0,0Z" transform="translate(-539.59 -385.44)"/>
        <path class="cls-2" d="M594.6,439.31a.42.42,0,0,1,0,.1A.25.25,0,0,0,594.6,439.31Z" transform="translate(-539.59 -385.44)"/>
        <path class="cls-2" d="M594.65,439.43h0l0,0Z" transform="translate(-539.59 -385.44)"/>
        <path class="cls-2" d="M594.33,438.11a.4.4,0,0,0,.08.16S594.36,438.16,594.33,438.11Z" transform="translate(-539.59 -385.44)"/>
        <path class="cls-2" d="M599.27,408.88c-.16.3-.3.59-.54,1.12C598.91,409.6,599.09,409.23,599.27,408.88Z" transform="translate(-539.59 -385.44)"/>
        <path class="cls-2" d="M592.13,431.83Z" transform="translate(-539.59 -385.44)"/>
        <path class="cls-2" d="M592.14,431.84h0Z" transform="translate(-539.59 -385.44)"/>
        <path class="cls-2" d="M592,427.81c0,.33.05,1.21,0,0Z" transform="translate(-539.59 -385.44)"/>
        <path class="cls-2" d="M592.08,427.47a.32.32,0,0,1,0,.14C592.11,427.63,592.09,427.42,592.08,427.47Z" transform="translate(-539.59 -385.44)"/>
        <path class="cls-2" d="M591.84,426.85c0,.07.1.16.09-.07C591.92,426.82,591.88,426.88,591.84,426.85Z" transform="translate(-539.59 -385.44)"/>
        <path class="cls-2" d="M598.6,410.19Z" transform="translate(-539.59 -385.44)"/>
        <path class="cls-2" d="M598.51,410.2Z" transform="translate(-539.59 -385.44)"/>
        <path class="cls-2" d="M598.52,410.19h0Z" transform="translate(-539.59 -385.44)"/>
        <path class="cls-2" d="M598.38,410.79c.13-.31-.09-.46,0,0Z" transform="translate(-539.59 -385.44)"/>
        <path class="cls-2" d="M597.72,411.8c.26-.31,0-.05,0,0Z" transform="translate(-539.59 -385.44)"/>
        <path class="cls-2" d="M598.27,411a1,1,0,0,0-.09.15S598.25,411,598.27,411Z" transform="translate(-539.59 -385.44)"/>
        <path class="cls-2" d="M600.25,407.67a.12.12,0,0,0-.08,0Z" transform="translate(-539.59 -385.44)"/>
        <path class="cls-2" d="M626.25,446.82a1,1,0,0,0,0,.21Z" transform="translate(-539.59 -385.44)"/>
        <path class="cls-2" d="M626.2,447.39c.06-.38.11-.75.16-1.13A5.46,5.46,0,0,0,626.2,447.39Z" transform="translate(-539.59 -385.44)"/>
        <path class="cls-2" d="M626.28,449.38s0,.13,0,.32l0,0A2.11,2.11,0,0,1,626.28,449.38Z" transform="translate(-539.59 -385.44)"/>
        <path class="cls-2" d="M626.15,457.37c.09.09-.07-.26,0,0Z" transform="translate(-539.59 -385.44)"/>
        <path class="cls-2" d="M626.23,456c0,.32,0,.21,0,0Z" transform="translate(-539.59 -385.44)"/>
        <path class="cls-2" d="M626.25,455.58c0-.13,0-.17,0,0Z" transform="translate(-539.59 -385.44)"/>
        <path class="cls-2" d="M626.25,455.58l0,.39v-.09Z" transform="translate(-539.59 -385.44)"/>
        <path class="cls-2" d="M625.62,438.62c0,.61.53.06,0,0Z" transform="translate(-539.59 -385.44)"/>
        <path class="cls-2" d="M625.62,439.24s0-.12-.06-.22A.66.66,0,0,0,625.62,439.24Z" transform="translate(-539.59 -385.44)"/>
        <path class="cls-2" d="M643.18,421.88s0-.09,0,0Z" transform="translate(-539.59 -385.44)"/>
        <path class="cls-2" d="M643.72,424.89v-.11A.22.22,0,0,0,643.72,424.89Z" transform="translate(-539.59 -385.44)"/>
        <path class="cls-2" d="M643.45,423.46c-.05,0,.17.76.32,1.6C644,425,643.61,424.21,643.45,423.46Z" transform="translate(-539.59 -385.44)"/>
        <path class="cls-2" d="M641.17,437.66a.19.19,0,0,1,0,.08C641.18,437.69,641.19,437.65,641.17,437.66Z" transform="translate(-539.59 -385.44)"/>
        <path class="cls-2" d="M643.35,430.6c0-.22,0,0-.05.27a1.18,1.18,0,0,1,.07-.2A.64.64,0,0,0,643.35,430.6Z" transform="translate(-539.59 -385.44)"/>
        <path class="cls-2" d="M641,438.57l0,.08S641,438.54,641,438.57Z" transform="translate(-539.59 -385.44)"/>
        <path class="cls-2" d="M641.06,438.65v0Z" transform="translate(-539.59 -385.44)"/>
        <path class="cls-2" d="M641.07,438.69Z" transform="translate(-539.59 -385.44)"/>
        <path class="cls-2" d="M643.81,431.89Z" transform="translate(-539.59 -385.44)"/>
        <path class="cls-2" d="M642.94,421.25l0,0Z" transform="translate(-539.59 -385.44)"/>
        <path class="cls-2" d="M643,421.3h0Z" transform="translate(-539.59 -385.44)"/>
        <path class="cls-2" d="M642.92,421.22s0,0,0,0Z" transform="translate(-539.59 -385.44)"/>
        <path class="cls-2" d="M642.22,420.71a.19.19,0,0,0,0,.09S642.24,420.75,642.22,420.71Z" transform="translate(-539.59 -385.44)"/>
        <path class="cls-2" d="M656.18,421.33l0-.18A.4.4,0,0,0,656.18,421.33Z" transform="translate(-539.59 -385.44)"/>
        <path class="cls-2" d="M656.63,423.58s0,0,0,0Z" transform="translate(-539.59 -385.44)"/>
        <path class="cls-2" d="M657.44,430h0l-.08.21A1,1,0,0,0,657.44,430Z" transform="translate(-539.59 -385.44)"/>
        <path class="cls-2" d="M657.17,430.54a1.77,1.77,0,0,0,0,.23c0-.14.08-.32.14-.52Z" transform="translate(-539.59 -385.44)"/>
        <path class="cls-2" d="M656.44,433.34c-.25-.39,0-.06,0,0Z" transform="translate(-539.59 -385.44)"/>
        <path class="cls-2" d="M657,429.68c.19.23,0-.26,0,0Z" transform="translate(-539.59 -385.44)"/>
        <path class="cls-2" d="M655.19,415.69Z" transform="translate(-539.59 -385.44)"/>
        <path class="cls-2" d="M646.52,404.65s-.09,0-.09,0h.25l-.13,0C646.68,404.51,646.61,403.5,646.52,404.65Z" transform="translate(-539.59 -385.44)"/>
        <path class="cls-2" d="M646.46,404.62l0,0S646.45,404.61,646.46,404.62Z" transform="translate(-539.59 -385.44)"/>
        <path class="cls-2" d="M647.61,406.22h0Z" transform="translate(-539.59 -385.44)"/>
        <path class="cls-2" d="M648.08,406.87h0Z" transform="translate(-539.59 -385.44)"/>
        <path class="cls-2" d="M648.08,406.87Z" transform="translate(-539.59 -385.44)"/>
        <path class="cls-2" d="M647.23,405.81l-.07,0h0Z" transform="translate(-539.59 -385.44)"/>
        <polygon class="cls-2" points="107.44 20.25 107.45 20.24 107.44 20.24 107.44 20.25"/>
        <path class="cls-2" d="M646.92,405.68H647C647.11,405.61,647.07,405.61,646.92,405.68Z" transform="translate(-539.59 -385.44)"/>
        <path class="cls-2" d="M648.13,406.89c-.63,0,.4,0,0,0Z" transform="translate(-539.59 -385.44)"/>
        <path class="cls-2" d="M647.75,406.9Z" transform="translate(-539.59 -385.44)"/>
        <path class="cls-2" d="M647.45,406.49Z" transform="translate(-539.59 -385.44)"/>
        <path class="cls-2" d="M647.47,406.48h0Z" transform="translate(-539.59 -385.44)"/>
        <path class="cls-2" d="M647.45,406.49h0Z" transform="translate(-539.59 -385.44)"/>
        <path class="cls-2" d="M647.14,406.57Z" transform="translate(-539.59 -385.44)"/>
        <path class="cls-2" d="M647.14,406.57h0Z" transform="translate(-539.59 -385.44)"/>
        <path class="cls-2" d="M647.37,406.26s.09,0,.15,0C647.39,406.27,647.48,406.21,647.37,406.26Z" transform="translate(-539.59 -385.44)"/>
        <path class="cls-2" d="M647.06,406.14h0Z" transform="translate(-539.59 -385.44)"/>
        <path class="cls-2" d="M647.05,406.14Z" transform="translate(-539.59 -385.44)"/>
        <path class="cls-2" d="M647,405.63l.22-.05-.13,0Z" transform="translate(-539.59 -385.44)"/>
        <path class="cls-2" d="M647,405.63Z" transform="translate(-539.59 -385.44)"/>
        <path class="cls-2" d="M647,402a.1.1,0,0,0-.06.08C647,402.12,647,402,647,402Z" transform="translate(-539.59 -385.44)"/>
        <path class="cls-2" d="M666.6,407.9c0,.06,0,.13.08.2A.76.76,0,0,0,666.6,407.9Z" transform="translate(-539.59 -385.44)"/>
        <path class="cls-2" d="M667.79,409.4s-.1-.17,0,0Z" transform="translate(-539.59 -385.44)"/>
        <path class="cls-2" d="M668,411.9c-.09,1,0,4.59,1.11,4.69,0,0-.78-2.18-.86-2.31s.49.78.72,1.31c-.28-1.08-.8-3.5-.87-3.6C668.09,412.17,668.05,412.14,668,411.9Zm.86,4.26a.47.47,0,0,1-.1-.3C668.75,416,668.78,416.06,668.82,416.16Z" transform="translate(-539.59 -385.44)"/>
        <path class="cls-2" d="M668.93,415.59l0,.09C669.15,416.15,669.08,416,668.93,415.59Z" transform="translate(-539.59 -385.44)"/>
        <path class="cls-2" d="M670.61,419s.06,0,.07,0Z" transform="translate(-539.59 -385.44)"/>
        <path class="cls-2" d="M671,428.67a1.05,1.05,0,0,1,0-.12C670.93,428.68,671,428.71,671,428.67Z" transform="translate(-539.59 -385.44)"/>
        <path class="cls-2" d="M671,428.55h0Z" transform="translate(-539.59 -385.44)"/>
        <path class="cls-2" d="M671,428.67c0,.08,0,.19,0,.32,0-.11,0-.22,0-.33Z" transform="translate(-539.59 -385.44)"/>
        <path class="cls-2" d="M667.83,409.82l0,.05Z" transform="translate(-539.59 -385.44)"/>
        <path class="cls-2" d="M667.87,409.87l.07.06Z" transform="translate(-539.59 -385.44)"/>
        <path class="cls-2" d="M667,408Z" transform="translate(-539.59 -385.44)"/>
      </g>
    </g>
  </g>
</svg>
