<svg id="people_bar" data-name="people bar" xmlns="http://www.w3.org/2000/svg" viewBox="0 0 714.14 86.13">
  <defs>
    <style>
      .cls-1 {
        fill: #6e996a;
      }
      .cls-2 {
        fill: #000;
      }
    </style>
  </defs>
  <title>banner_cheer-sc</title>
  <path class="cls-1" d="M748.37,314.6a65.26,65.26,0,0,0-.62-86.13H50.15V314.6Z" transform="translate(-50.15 -228.47)"/>
  <path class="cls-2" d="M756.2,294.28c-3.55-1.57-3.19-6.94-5.13-10.27-1.24-2.1-4.15-3.86-5.57-6l-6-.85s-7-7.41-7.27-7.7c-2.28,0-2.69.11-3,2.14-1.1-.47-1.75-1.2-3-.43V272c-.86-.28-2.14-.47-3-.75-.38.91,0,0-.85,2.47a2.12,2.12,0,0,1-.16.8,1.37,1.37,0,0,1-.16.25c-.13.17-.09.16.74.66A23,23,0,0,1,719,278c.25,4.31,1.95,6.53,1.71,10.7-1.19,1.22-3.7,4.24-4.7,5.56-2.93.06-9.11.88-11.13-.42l-1.28-.43c.31-4.37,3.48-5.24,4.7-8.56,1.66-4.5,2.44-8.47,4.71-12.41,3.89-6.76,9.19-12.8,13.69-19.25l3.86-3.43c2.94-4.32,5.2-12.72,9-15.83v-.86a3.67,3.67,0,0,0-3,2.14h-.43c.11-1.49.15-1.8.85-2.56v-1.29c-2.3.88-1.37,1.92-2.56,3.85-.85,1.36-3.36.92-4.28,2.14-1.66,2.2-1.09,6.18-2.57,8.56l-2.14,1.28c-1.59,2.06-2.23,4.45-4.28,6-3.12,2.35-7.81,5.24-9.84,8.55-1.16,1.9-1.42,4.54-3,6-.44.35-.1.16-.85.43-2.58-2.6-6.3-3.79-10.7-3.42-2.15,2.28-4.5,4.32-6,7.27-1.11,2.21-.47,5.23-1.28,6.85a8,8,0,0,1-1.29,2.14h-.85c-2.69-5.32-2.78-13.56-4.71-19.68-1.76-5.61-5.53-11.42-7.27-17.12-.78-2.52.8-5.32,0-6.85-.15-.14-.29-.28-.43-.43l-1.29,3.43-.85.43a6.07,6.07,0,0,1-.43-2.14h-.43a14.83,14.83,0,0,0-.22,2.7c-.21,1.13-1.06,1.8-.23,3.53.7,3.12,1.28,3.28,2.59,5.75.14,1.57.29,3.14.43,4.7.87,2.77,2.93,5.89,3.42,9,.33,2-.88,4.48-.85,7.28s1.84,8,.42,10.27c-.77,1.56-3.54,2.33-5.13,3a23.84,23.84,0,0,0-.86,6c-2,1-4.44,1.95-6,3.42-5.5,0-6.82-1.4-9.84-3.42-.37-9.76-2.25-20.86-8.13-25.25-2.37-1.77-5.49-2-7.7-3.42-5.1-.07-3.61-2.15-5.56-5.13-1.37-2.08-4.1-2.7-6-4.28-2.81.32-5.48,2.7-7.28,4.28a39.71,39.71,0,0,0-3.42,6.84c.14,1.71.28,3.43.43,5.14-.47,1.38-2.23,3-3,4.28-9-1-5.77-23.41-7.7-30.38-.54-2,.07-4.84-.86-6.42-.09-3.83.27-6.24,1.44-8.05h-5a15.56,15.56,0,0,0-.7,2.06c-1.83,7.21.05,15.76,0,22.68a38.08,38.08,0,0,1-1.28,6c-1.33,5.88.9,11.43,1.28,16.26-4.41,4.17-8.55,9-13.26,12.83-3.47,2.83-7.57,4.2-10.7,7.28-6.54,0-21.64,1.45-26.1-.86-.92-4.93.6-11.87-2.57-15.4.56-2.85,2.67-3.69,3.42-6,1.52-4.65-3.24-9.45-6-10.27-6.17-4.19-11.39,7-11.55,11.55L535,275c-5.81-1.1-9.88-8-12.41-12.84-4.52-8.6-11.74-14.55-12.41-27.38-1.06.63-.79.52-.85,2.13h-.43l-.86-1.71h-1.28c.76,2.61,1.76,3.56-.43,5.57.72,4,3.85,6.4,5.14,9.84,1.93,5.16,2.41,9.86,5.13,14.12,1.95,3,5,6.51,6.42,9.84v2.57a27.09,27.09,0,0,0,3,5.56c-.32,5-4.11,8.66-6,12.84-1.77.14-3.44.82-4.7,0-5.56-2-.69-10.41-2.57-15.83-1-3-3.59-4.86-5.14-7.28-3-.27-8.31-1.18-10.69.43-2.74,1.14-1.7,6-3,8.56-.44.89-1.61,2-2.14,3-3.56-1.25-9.22-8.94-10.7-12.41-1.23-2.9-.59-5.71-2.56-7.7.55-4,2.83-5.29,3.85-8.56.36-.72.2-1.32-.43-2.14v-.42a7.38,7.38,0,0,0-2.57,3c-.32-.46-.27-.39-.43-1.28-4.87,1.73-1.64,5.7-3.42,10.69-.39,1.12-.7,3.1-1.28,4.71-.34.94-1.91,2.09-2.14,3-.39,1.49.95,4.06,1.28,5.13,1.54,5.05,4.08,12.52,7.28,15.83-.49,1.34-.9,1.28-1.72,2.14h-30.8c-1.5-.71-1.6-3.76-3-4.7-7.55-5.1-12.59-1-15.83,4.7-6,.07-9.17.43-12.84-1.71.62-2.6,3.45-3.12,4.71-5.13.43-1.29.85-2.57,1.28-3.85-.72-5-4.31-4.83-6.85-7.71-1.49,0-3.42-.14-4.27.43-3.22,1.43-4.87,10.7-7.71,12-.44.35-.1.16-.85.43-1.81-3-3.63-8.6-4.71-12,.14-1.85.29-3.71.43-5.56-1.4-6.43-3.72-11.4-1.71-18.4.75-2.62.25-5.83,1.71-7.71v-2.13c-1.81.51-.46.66-2.14,0-1.1,3.31-1.51,3.64-4.28,5.13.49,2.61.95,11.44-.43,13.69l-2.14,1.29a26.92,26.92,0,0,0-1.71,5.56c-1.75,7.06,2.59,20-.43,24.82-.14.43-.28.85-.43,1.28-1.8-.4-3.44-2.29-4.7-3.42-2.53-.15-3.79-.45-5.14,1.28-2.75-.33-2.42-2.32-3.85-3.85.39-3.68,3-7.07.43-10.27a5.7,5.7,0,0,0-4.28-3.85,7.35,7.35,0,0,0-4.28.43c-3.83.7-5.09,5.33-6.42,8.56-2.91-.34-5.84-.16-8.56-.43l-.42-.43c-.21-1.18-.52-1.24,0-2.14,0-2.83-.33-3.62-1.29-5.13-2.81.72-2.41,4.95-3.85,6.84-.59.78-1.62-.06-2.57.43-1.58.83-2.23,3.41-3.42,4.71v5.56c-.28.6-4.55,3.21-5.13,3.42-1.7.62-16.77.1-17.55-.42l-1.28-.43c.53-2.33,2.74-2.89,3.42-5.14,1.7-5.59-4.17-8.17-2.14-13.69.61-1.66,2.33-2.72,1.71-6-.58-3.12-7.42-8.17-3.42-12.84-.09-3-1-3.34-2.14-5.13-2.35.28-2,1.11-3.42,2.14l-.43.42c-1.13-2.14-5.55-7.72-9.41-5.13-2.69,1.08-5.77,7.54-6.85,10.7-3.08-.64-6.14-7.31-6.85-10.27-.82-1.64,3.14-14.75,4.28-16.69l3.85-2.57c-.17-.88-.1-.82-.43-1.28-.58-1.49-1.56-1.58-2.56-2.57-4.13.79-2.92,4.61-4.71,7.7-4.89,8.43-8.17,10.2-3.85,21,.81,2,.63,3.89,2.14,5.14a4.61,4.61,0,0,1-.43,2.56l-.43.43c-1.58-2.34-3-3.84-4.28-6.85-.74-.27-.42-.08-.85-.42a6.81,6.81,0,0,0-2.14.42c.19,5,2.87,5.24,4.71,8.13l.42,2.57c.88,2.18,3.18,5,4.71,6.85-.14.85-.29,1.71-.43,2.57-3.32,1.09-6.58.75-9,2.56-1.44,1.09-.78,2.61-1.72,4.28l-3.85,3.85v.43a7.08,7.08,0,0,1-3-2.14c-5.07.62-7.72,5.24-11.56,7.28-1.74.92-3.82-.62-5.56.42-3.33.07-4.13-.83-5.13-3-.88.17-.83.11-1.29.43-2.1.76-2.85,3.78-3.85,5.56-6.53.05-21.64,1.45-26.1-.86.18-6.31-1.1-8.75-5.14-10.69.57-3.81,5-7.95,2.14-11.56-.72-2-2.24-2-3.42-3.42-8.6-.3-8,6.23-10.27,12-6.63,1.35-15.54,1.74-18.83-4.28-1.08-2,.43-4.59,0-6.42a13.45,13.45,0,0,0-1.28-2.14c-1.88.42-2,1.33-3.42,2.14-.06,2.54-.2,5.41.85,6.85-.08,4.5-2.95,5.61-4.71,8.56h-.85c-1.63-2.53-4.4-4.08-6-6.42-1.69-2.5-1.8-6.43-3.85-8.56-1.94-.91-3.25,1.57-4.28,3,.14,1.17,3.89,6.45,4.7,7.27-.06,2.23-.23,2.26-1.71,3v7.27l-7.7-1.28-7.27.42-2.57-2.56c-2.91-1.75-6.06-3.25-9-4.71a14.58,14.58,0,0,1-.43-3.42l3.43-4.28c1-.44.81.54,1.71,0h.43c-.6-1.64-1.57-1.78-2.14-3.43-.4-1,.43-1.53.85-3-1.05-1.22-1.7-2.9-3-3.85-1-.76-1.8-.72-2.57-1.71-8.42-.5-7.15,5.14-9.84,11.12-2.06-.34-3.27-2-6-1.28-4.54,1.16-12.2,4.42-11.13,10.7.76,4.41,3.37,5.14,3.43,11.55H84.81c-1-.66-.69-2.69-1.28-3.85-1.72-3.39-3.9-7.93-6.42-10.7.48-7.09,6.3-15.23,9.41-20.11,2.72-4.26,3.21-9,5.14-14.12s6.48-6.52,3.42-12.41a4.65,4.65,0,0,0-2.57.43c-1.19,1.68-.49,4.16-1.28,6.42-1.38,3.9-4.93,7.41-6.85,10.69s-2.67,6.29-4.7,9.42c-.8,1.22-2.67,4.22-3.86,5.13-2.13,1.65-4.9,2.45-6.41,4.71-.88-.17-.83-.11-1.29-.43-4.16-6.06-.7-12.08-12-12l-3.85,3c-.93,1.29-1.11,3.13-2.14,4.28,0,4.15,1.32,6.2,3.42,8.13-.33,2.13-1.44,3.52-2,5.2a12.1,12.1,0,0,0-1.41-1.71v18.42c0-.05,0,0,0,0v6.95c.05,0,0,.06,0,.13v7.58H748.37a65.42,65.42,0,0,0,12-20.32ZM87.72,308A10.57,10.57,0,0,0,86,303.3v-.86h21l1.29,5.56Zm63.75-2.56c-2-.46-2-1.54-1.71-3a7.34,7.34,0,0,0,2.57.43l.43.43A19,19,0,0,1,151.47,305.44Zm92.86,2.14c-9.51,1.83-22.18.47-32.52.42a8.13,8.13,0,0,0-1.71-1.28c.28-2.56,1.46-2.67,2.57-4.28h30.38a11.09,11.09,0,0,0,1.71,2.14A9.22,9.22,0,0,1,244.33,307.58Zm60.34-37.23h-.86v-.86h.86Zm3.42-3a6.43,6.43,0,0,1-1.71-.42c.34-1.77,1.26-2,1.71-3.43.61-1.91.21-3.32.43-4.28l.85.43C309.6,263.44,309.62,264.81,308.09,267.35ZM328.2,308c-4.93.06-12.81.94-16.26-.85.23-3,1.36-3.74,2.57-5.56h14.12a8.13,8.13,0,0,0,1.71,1.28C330.28,306,329.39,306.25,328.2,308ZM472,307.58H446.73c-3.86,0-9,.45-11.55-.86.17-.88.1-.82.43-1.28,1-.81,1.82-.35,3.42-.86a22.87,22.87,0,0,0,7.7-4.28c9.4,0,20-.56,28.67.43l.43.43C475.48,304.35,473.39,305.46,472,307.58Zm98-.86v.43c-5.83.05-18.3,1.19-22.25-.86,0-4.16,1.47-4.44,3.42-6.42h22.68l1.28,1.29C574.69,303.44,572,306.07,570,306.72Zm46.64-3.85-.43.43-.42-.43a6.87,6.87,0,0,1,.42-2.14H617A3.7,3.7,0,0,1,616.61,302.87Zm12.41-12h-.85V290H629Zm0-16.31c0,.55,0,1.61,0,2.16-.46,0-1-.5-1.42-.5a13.74,13.74,0,0,1,.7-3.31l.69.83C629.52,274.27,629.15,273.78,629,274.58Zm76.64,33c-5.41,0-13.42,1.09-18-.43-.27-.74-.08-.42-.42-.86.48-4.64,6.19-4.48,9-6.84,3.2-.06,10.17-1,12.41.42l1.29.43C709.54,303.28,707,305.38,705.62,307.58Zm26.1-32.52,1.28.42c-.08,2.41-.67,2.95-2.14,3.86l-.42-.43C730.86,277.62,731.29,276.34,731.72,275.06ZM733,302.87c-3.62.81-7.94,1.74-11.55,2.57a8.08,8.08,0,0,0-1.71-1.29c-.29-1.49-.51-2.25.43-3.42l1.28-1.28c2.83-.06,8.76-.83,10.7.42l1.28.43C733.29,301.16,733.15,302,733,302.87Zm-2.14-8.56c-2.84.05-5.58,0-7.27-.85.24-3.65,2.4-4.67,3.42-7.28.7-1.77.6-3.37,1.29-4.71a7.54,7.54,0,0,0,4.7-1.28h1.71l1.29,1.28A48.74,48.74,0,0,1,730.86,294.31Z" transform="translate(-50.15 -228.47)"/>
</svg>
