<svg version="1.1" id="Layer_1" xmlns="http://www.w3.org/2000/svg" xmlns:xlink="http://www.w3.org/1999/xlink" x="0px" y="0px"
	 viewBox="0 0 286.8 276.5" style="enable-background:new 0 0 286.8 276.5;" xml:space="preserve">
   <defs>
     <style>
			<!-- @media (prefers-color-scheme:dark) { -->
				.st0 {
					fill: #eee;
				}
			<!-- } -->
		</style>
	</defs>
	<title>indybay publish</title>
	<path class="st0" d="M230.2,2.3c3.2-3,8.2-3,11.4,0l42.9,41.3c3,2.9,3.2,7.6,0.3,10.7c-0.1,0.1-0.2,0.2-0.3,0.3l-26.6,25.7L203.5,28
		l-20.6,19.8l54.2,52.3l-133,128.3l-54.3-52.3l-20.6,19.8l54.2,52.3L70.3,261l-0.3-0.2c-1.5,2.4-3.9,4.1-6.7,4.6l-50.6,10.9
		c-0.8,0.2-1.5,0.2-2.3,0.2c-2.8,0-5.4-1.1-7.4-3c-2.5-2.4-3.6-6-2.8-9.4l11.3-48.8c0.7-2.7,2.4-5.1,4.8-6.5l-0.2-0.2"/>
</svg>
